1635724799 1636322399
1636322399 1636927199
1636927199 1637531999
1637531999 1638136799
1638136799 1638741599
1638741599 1639346399
1639346399 1639951199
1639951199 1640555999
1641160799 1641765599
1641765599 1642370399
